[
    {
        "id": 1,
        "question":"Qual música venceu o premio Música do Ano no CVMA de 2014",
        "answer":[
            "“Bo tem Mel” – Nelson Freitas",
            "“Ka bu tchora” – Dino d’Santiago",
            "“Djar Fogo” – Neuza",
            "“Encomenda de terra” - Mirri lobo "
        ]
        
    },
    {
        "id":2,
        "question":"Qual é o nome do primeiro álbum da banda Os Tubarões",
        "answer":[
            "Pepe Lopi",
            "Tchon di Morgado",
            "Porton d’ nôs ilha",
            "Os Tubarões"
        ]
        
    },
    
    {
        "id": 3,
        "question":"Quem era o vocalista da banda Os Tubarões",
        "answer":[
            "Ildo Lobo",
            "Mário Russo",
            "Albertino Évora",
            "Zeca Couto"
        ]
        
    },
    
    {
        "id": 4,
        "question":"De quem é a musica “Dança Ma Mi Criola”",
        "answer":[
            "Tito Paris",
            "Bana",
            "Ildo Lobo",
            "Zeca Nha Renalda"
        ]
        
    },
    
    {
        "id": 5,
        "question":"Qual é o nome do primeiro disco da cantora Elida Almeida",
        "answer":[
            "“Nta Konsigui”",
            "“Lebam Ku Bo”",
            "Joana",
            "“Tomal el”"
        ]
        
    },
    
    {
        "id": 6,
        "question":"Cantora cabo-verdiana conhicada como “diva dos pés descalços”:",
        "answer":[
            "Cesária Évora",
            "Lura",
            "Sara Tavares",
            "Elida Albertino"
        ]
        
    },
    
    {
        "id": 7,
        "question":"O nome verdadeiro do “Codé di Dona” é: ",
        "answer":[
            "Gregório Vaz",
            "Agusto Tavares",
            "Pedro Semedo",
            "José Varela"
        ]
        
    },
    
    {
        "id": 8,
        "question":"A que banda cabo-verdiana pertece a música “Djam Brancu Dja”: ",
        "answer":[
            "Bulimundo",
            "Os Tubarões",
            "Tulipa Negra",
            "Corda do Sol"
        ]
        
    },
    
    {
        "id": 9,
        "question":"Quem é o compositor da música “Lapidu na bô””: ",
        "answer":[
            "Orlando Pantera",
            "Ildo Lobo",
            "Manuel de Novas",
            "Lura"
        ]
        
    },
    
    
    {
        "id":10,
        "question":"Qual foi a música vencedora da caregoria Música Popular do Ano no CVMA 2015: ",
        "answer":[
            "Djam Bira Fino-Lejemea  ",
            "Toni-Elji feat Zeca di Nha Reinalda",
            "Terra Sabe-Loony Johnson",
            "Poderosa-Djodje feat. Dynamo"
        ]
        
    },
    
    {
        "id":11,
        "question":"Em que ano foi a primeira edição de Cabo Verde Music Awards: ",
        "answer":[
            "2011",
            "2012",
            "2013",
            "2014"
        ]
        
    }
]