[
    {
        "id": 1,
        "question":"Quando é que Cabo Verde tornou-se independente.",
        "answer":[
            "5 July 1975",
            "5 July 1970",
            "16 November 1969",
            "31 May 1962"
        ]
        
    },
    {
        "id": 2,
        "question":"Em que ano é que cabo verde começou a ser pouvado.",
        "answer":[
            "1462",
            "1460",
            "1450",
            "1562"
        ]
    },
    {
        "id": 3,
        "question":"Quando Francis Drake atacou Ribeira Grande",
        "answer":[
            "1585",
            "1885",
            "1685",
            "1785"
        ]
    },
    {
        "id": 4,
        "question":"Quem foi o presidente da república de cabo verde em 2003",
        "answer":[
            "Pedro Pires",
            "Carlos Veiga",
            "Jorge Fonseca",
            "José Maria Neves"
        ]
    },
    {
        "id": 5,
        "question":"Quando foi abolida a escravidão em Cabo Verde",
        "answer":[
            "1876",
            "1862",
            "1775",
            "1900"
        ]
    },
    {
        "id": 6,
        "question":"Em que ilha se dança a dança di boi",
        "answer":[
            "Santo Antão",
            "São Vicente",
            "São Nicolau",
            "Santiago"
        ]
    },
    {
        "id": 7,
        "question":"Em que ano o Papa João Paulo II visitou Cabo Verde",
        "answer":[
            "1990",
            "1995",
            "2002",
            "1993"
        ]
    },
    {
        "id": 8,
        "question":"Quais são os tipos de músicas que originaram de Cabo Verde.",
        "answer":[
            "Tabanka, Funáná e Batuku",
            "Batuku, Funáná e Zouk",
            "Kuduro, Batuku e Funáná",
            "Batuku e Funáná,AfroHouse"
        ]
    },
    
    {
        "id": 9,
        "question":"Qual foi a primeira ilha a ser pouvada",
        "answer":[
            "Santiago",
            "São Vicente",
            "Fogo",
            "Sal"
        ]
    }, 
    {
        "id": 10,
        "question":"Em que ano nasceu Amílcar Lopes Cabral ",
        "answer":[
            "1924",
            "1900",
            "1940",
            "1820"
        ]
    }
    
]