{
    "_id": "5eab4072dd4aed002eb6018b",
    "name": "nome",
    "file": "https://cacoo.com/diagrams/hSjNoORhVC4wCsIm/edit?sid=85B99",
    "type": "image",
    "created_at": "2020-04-30T21:17:38.737Z",
    "updated_at": "2020-04-30T21:17:38.737Z",
    "__v": 0
}